Android_SDK
gklab-156-134  
gklab-156-134  
gklab-156-200  
gklab-156-200  

Android_Toolchain
gklab-157-151  
gklab-78-077  

ASM_Windows
gklab-78-013  
gklab-78-014  

AVS_Android
gklab-156-204  

Binscope
gklab-156-132  
gklab-156-132  
gklab-156-017  
gklab-156-017  
gklab-156-131  
gklab-156-131  

BullsEye
gklab-157-185  
gklab-78-051  
gklab-157-181  
gklab-156-196  
gklab-156-015  
gklab-156-197  
gklab-156-200  
gklab-156-155  
gklab-156-155  
gklab-156-011  
gklab-157-219  
gklab-157-218  
gklab-157-217  
gklab-157-183  
gklab-78-050  
gklab-157-186  

Cas_Linux
gklab-157-173  
gklab-156-171.igk.intel.com  
gklab-157-179  
gklab-156-181  
gklab-78-089  
gklab-156-184  
gklab-156-182  
gklab-156-084  
gklab-157-170  
gklab-157-203  
gklab-156-161  
gklab-156-161  
gklab-157-191  
gklab-78-090  
gklab-156-083.igk.intel.com  
gklab-156-170  

CastleCrest_compilation
gklab-157-214  
gklab-157-138  
gklab-157-207  
gklab-156-127  
gklab-157-132  
gklab-157-216  
gklab-157-123  
gklab-156-125  
gklab-157-136  
gklab-157-205  
gklab-156-126  
gklab-157-129  
gklab-157-209  
gklab-157-134  
gklab-157-215  
gklab-157-133  
gklab-157-137  
gklab-157-208  
gklab-157-131  
gklab-157-212  
gklab-157-135  
gklab-157-122  
gklab-156-124  
gklab-157-206  
gklab-157-204  
gklab-157-121
gklab-156-123

CastleCrest_ENG_FW_compilation
gklab-157-065  
gklab-156-096  
gklab-156-067  
gklab-78-060  
gklab-78-056  
gklab-78-057  
gklab-157-068  
gklab-157-067  
gklab-78-059  
gklab-78-058  
gklab-78-055  
gklab-78-062  
gklab-157-069  
gklab-78-061  

CastleCrest_FW_ENG_HOLD
gklab-156-091  
gklab-156-089  
gklab-156-094  
gklab-156-090  
gklab-156-069  
gklab-157-064  
gklab-156-088  
gklab-156-093  
gklab-156-095  
gklab-156-068  
gklab-156-097  
gklab-156-073  
gklab-156-092  
gklab-157-066  

CastleCrest_PSS_Simics
gklab-157-033

CastleCrest_tools_compilation
gklab-157-232  
gklab-157-236  
gklab-157-231  

CIG_Matlab 
gklab-78-006

CIG_Xtensa
gklab-78-096  
gklab-78-093  
gklab-78-098  
gklab-78-099  
gklab-156-153  
gklab-78-095  
gklab-78-094  
gklab-78-097  

ClamAV 
gklab-156-014  
gklab-156-014  
gklab-156-014
gklab-156-014  
gklab-156-014  
gklab-156-016 
gklab-156-016  
gklab-156-016  
gklab-156-016  
gklab-156-016  
gklab-156-010  
gklab-156-012  
gklab-156-012  

CrystalRidge_1.0_CentOS7 
gklab-78-051  
gklab-157-181  
gklab-78-080  
gklab-78-081  
gklab-157-219  
gklab-157-217  
gklab-78-050 

CrystalRidge_1.0_ESX
gklab-157-202  
gklab-156-164 

CrystalRidge_1.0_FW_Nanocore
gklab-78-105  
gklab-78-106  
gklab-78-104  
gklab-78-102  
gklab-78-103  
gklab-78-101  

CrystalRidge_1.0_MGMT_Fedora_25
gklab-79-187  
gklab-79-186  

CrystalRidge_1.0_MGMT_Sles_12
gklab-157-198  
gklab-157-211  

CrystalRidge_1.0_UEFI_LINUX
gklab-157-185  
gklab-157-186  

CrystalRidge_1.0_UEFI_WINDOWS
gklab-156-206  
gklab-156-205  
gklab-156-203  
gklab-156-207  

CrystalRidge_1.0_Verify_Rpms
gklab-156-180  
gklab-156-180  
gklab-156-180 

CrystalRidge_1.0_WindowsDriver
gklab-156-186  
gklab-156-158  
gklab-156-185  
gklab-156-159  

CrystalRidge_1.0_WindowsDriver_BVT
gklab-78-019  
gklab-79-185  

CrystalRidge_MGMT_Win 
gklab-156-054  
gklab-156-044  
gklab-156-053  
gklab-156-041  
gklab-156-043  
gklab-156-042  
gklab-156-055  
gklab-156-057  
gklab-156-046  
gklab-156-056  
gklab-156-052  
gklab-156-045  
gklab-156-047  
gklab-156-051  
gklab-156-058  

CrystalRidge_MGMT_Win_New_Power
gklab-78-063  
gklab-78-066  
gklab-78-109  
gklab-156-043  
gklab-78-068  
gklab-156-042  
gklab-78-067  
gklab-78-110  
gklab-156-046  
gklab-156-047  
gklab-78-111  
gklab-78-064  
gklab-78-108  
gklab-78-065  
gklab-78-070  

CrystalRidge_MGMT_Win_Power
gklab-156-015  
gklab-156-011  
gklab-156-017  

CrystalRidge_NVML
gklab-156-252  
gklab-78-078  
gklab-156-253  
gklab-79-182  
gklab-157-169  
gklab-157-160  
gklab-156-148  
gklab-157-167  
gklab-79-181  
gklab-79-188  
gklab-79-184  

CrystalRidge_NVML_CHECK_COPYRIGHT
gklab-157-167  
gklab-79-183  

CrystalRidge_NVML_MQTT
gklab-157-150 

CrystalRidge_NVML_SQA
gklab-78-023  
gklab-157-026  
gklab-157-023  
gklab-157-029  
gklab-78-026  

CrystalRidge_NVML_VAL 
gklab-157-218  
gklab-157-193  
gklab-157-183  

CrystalRidge_NVML_WINDOWS
gklab-79-180  
gklab-79-178  

CrystalRidge_Tools_CentOS7
gklab-156-166

CrystalRidge_Tools_SVOS
gklab-156-165  

CrystalRidge_UEFI_Bullseye
gklab-156-180 

CSI3_Certified
gklab-156-136  
gklab-156-136  
gklab-156-015  
gklab-156-015  
gklab-156-135  
gklab-156-135  
gklab-156-134  
gklab-156-134  
gklab-156-202  
gklab-156-202  
gklab-78-129  
gklab-78-129  
gklab-156-137  
gklab-156-137  
gklab-156-138  
gklab-156-138  
gklab-156-133  
gklab-156-133  
gklab-156-139  
gklab-156-139 

dotNet_Reactor
gklab-156-015  
gklab-156-015 

DRIVER_SIGNING
GKSBLD001  
GKSBLD001  
GKSBLD001  
GKSBLD001 

ECSS_SIGNING
GKSBLD001  
GKSBLD001  
GKSBLD001  

EFI_EDK
gklab-156-209  
gklab-156-209  

EIG ARMTOOLCHAIN 
gklab-78-075  
gklab-78-076  
gklab-78-074  

EIG Office 2013
gklab-156-150

EIG TLS TOOLS
gklab-157-099  

EIG TLS WIX
gklab-157-099  
gklab-157-089  
gklab-157-096  
gklab-157-095  

EIG_Division
gklab-157-072  
gklab-78-018  
gklab-78-036  
gklab-78-096  
gklab-157-099  
gklab-78-093  
gklab-78-044  
gklab-78-032  
gklab-157-074  
gklab-157-088  
gklab-78-098  
gklab-157-071  
gklab-78-031  
gklab-78-075  
gklab-157-078  
gklab-78-076  
gklab-78-099  
gklab-157-075  
gklab-78-006  
gklab-78-074  
gklab-157-077  
gklab-157-083  
gklab-157-085  
gklab-157-081  
gklab-78-033 
gklab-78-034  
gklab-156-153  
gklab-78-124  
gklab-78-128  
gklab-78-128  
gklab-78-095  
gklab-78-030  
gklab-157-096  
gklab-78-094  
gklab-78-107  
gklab-157-084  
gklab-157-095  
gklab-78-097  

EIG_Yocto 
gklab-78-018  

FTF compilation
gklab-156-136  
gklab-156-132  
gklab-156-135  
gklab-156-134  
gklab-78-129  
gklab-156-137  
gklab-156-138  
gklab-156-133  
gklab-156-139  
gklab-156-131  

Globalyzer
gkvapp108  
GKSBLD001  

GreenHills 
gklab-78-017  
gklab-78-017  
gklab-78-017  
gklab-78-131  
gklab-78-130  
gklab-78-132  

GreenHills_jdralsto
gklab-78-017  
gklab-78-017  
gklab-78-017  

GulfDale
gklab-78-011  

HPQC_connector
GKSWWW004  
GKSWWW004  
GKSWWW004  

HSD DSD WEB 
GKSWWW004 

HSD_ES_EIG
gklab-79-020  
gklab-79-021 

HSDES_WWW_SERVER
gklab-78-027  

HVM Tool SLES11 
gklab-157-117  

ICAS Linux
gklab-157-173  
gklab-156-171.igk.intel.com  
gklab-157-179  
gklab-156-181  
gklab-78-089  
gklab-156-184  
gklab-156-182  
gklab-156-084  
gklab-157-170  
gklab-157-203  
gklab-156-161  
gklab-156-161  
gklab-157-191  
gklab-78-090  
gklab-156-083.igk.intel.com  
gklab-156-170  

IIS
gklab-156-247  
orlab-156-222  
gklab-156-011  
gklab-156-011  
gklab-156-017  
gklab-156-017  

InstallShield 2013
gklab-156-015  
gklab-156-015  
gklab-156-015  
gklab-157-142  
gklab-157-142  
gklab-156-151  
gklab-156-151  

InstallShield build node
gklab-156-015  
gklab-156-015  

Intel Parallel Studio XE 2015 15.0
gklab-156-138  
gklab-156-138  

IntelCaffe CentOS 7.1 
gklab-157-225  
gklab-157-238  
gklab-157-226  
gklab-157-239  

IntelWoV_SDKLinux
gklab-79-034  
gklab-79-033  
gklab-79-035 

IPP
gklab-156-136  
gklab-156-136  
gklab-157-099  
gklab-78-032  
gklab-156-135  
gklab-156-135  
gklab-78-031  
gklab-78-129  
gklab-78-129  
gklab-156-137  
gklab-156-137  
gklab-78-033  
gklab-78-034  
gklab-78-030  

IPP 9.0
gklab-78-032  
gklab-78-031  
gklab-78-033  
gklab-78-034  
gklab-78-030  

KEPM 
GKSWWW004  
GKSWWW004  
GKSWWW004  

Klocwork 10.0
gklab-78-052  
gklab-156-152  
gklab-156-136  
gklab-156-132  
gklab-156-135  
gklab-156-134  
gklab-78-129  
GKSWWW004  
gklab-78-053  
gklab-156-137  
gklab-156-138  
GKSBLD001  
gklab-156-133  
gklab-156-017  
gklab-156-139  
gklab-157-141  
gklab-156-131  
gklab-157-143  

Klocwork 10.0 qba2
gklab-78-052  
gklab-156-152  
gklab-156-136  
gklab-156-132  
gklab-156-135  
gklab-156-134  
gklab-78-129  
GKSWWW004  
gklab-78-053  
gklab-156-137  
gklab-156-138  
GKSBLD001  
gklab-156-133  
gklab-157-141  
gklab-156-131  
gklab-156-139  
gklab-157-143  

Klocwork 10.0
gklab-157-232  
gklab-157-236  
gklab-157-231  

LATEX
gklab-156-149  
gklab-156-149  

Linux Build Server
gklab-156-014  
gklab-156-014  
gklab-156-014  
gklab-156-014 
gklab-156-014  
gklab-156-016  
gklab-156-016 
gklab-156-016  
gklab-156-016  
gklab-156-016  

Mercurial
gklab-156-014  
gklab-156-014  
gklab-156-014  
gklab-156-014 
gklab-156-014  
gklab-156-128  
gklab-156-112
GKSWWW004  
GKSWWW004  
GKSWWW004  
gklab-156-016  
gklab-156-016 
gklab-156-016  
gklab-156-016  
gklab-156-016  
gklab-156-129

Microsoft Visual Studio 2005
gklab-156-249  
gklab-156-247  
gklab-156-219  
gklab-156-015  
gklab-156-015  
gklab-156-015  
gklab-156-246  
gklab-156-246  
gklab-156-246  
gklab-156-142  

Microsoft Visual Studio 2008
gklab-156-249  
gklab-156-247  
gklab-156-219  
gklab-156-136  
gklab-156-136  
gklab-156-237  
gklab-156-015  
gklab-156-015  
gklab-156-015  
gklab-156-132  
gklab-156-132  
gklab-156-135  
gklab-156-135  
gklab-156-134  
gklab-156-134  
gklab-78-129  
gklab-78-129  
gklab-156-246  
gklab-156-246  
gklab-156-246  
gklab-156-137  
gklab-156-137  
gklab-156-138  
gklab-156-138  
gklab-156-133  
gklab-156-133  
gklab-156-142  
gklab-156-017  
gklab-156-017  
gklab-156-139  
gklab-156-131  
gklab-156-131  
gklab-156-236  
gklab-156-139  

Microsoft Visual Studio 2010
gklab-156-249  
gklab-156-247  
gklab-156-219  
gklab-156-136  
gklab-156-136  
gklab-156-237  
gklab-156-015  
gklab-156-015  
gklab-156-015  
gklab-156-132  
gklab-156-132  
gklab-156-135  
gklab-156-135  
gklab-156-134  
gklab-156-134  
gklab-156-217  
gklab-156-202  
gklab-156-217  
gklab-156-217  
gklab-78-129  
gklab-78-129  
gklab-156-246  
gklab-156-246  
gklab-156-246  
gklab-156-137  
gklab-156-138  
gklab-156-138  
gklab-156-133  
gklab-156-133  
gklab-156-142  
gklab-156-017  
gklab-156-017  
gklab-156-139  
gklab-156-131  
gklab-156-131  
gklab-156-236  
gklab-156-139  

Microsoft Visual Studio 2012
gklab-156-188  
gklab-156-136  
gklab-156-136  
gklab-156-044  
gklab-156-015  
gklab-156-015  
gklab-156-015  
gklab-156-132  
gklab-156-132  
gklab-156-135  
gklab-156-135  
gklab-156-134  
gklab-156-134  
gklab-156-217  
gklab-156-217  
gklab-156-217  
gklab-78-129  
gklab-78-129  
gklab-156-041  
gklab-156-043  
gklab-156-033  
gklab-156-035  
gklab-156-042  
gklab-156-137  
gklab-156-138  
gklab-156-138  
gklab-156-031  
gklab-156-032  
gklab-156-046  
gklab-156-045  
gklab-156-133  
gklab-156-133  
gklab-156-047  
gklab-156-017  
gklab-156-017  
gklab-156-139  
gklab-156-037  
gklab-156-131  
gklab-156-131  
gklab-156-139  
gklab-156-036  

Microsoft Visual Studio 2013 
gklab-156-188  
gklab-156-136  
gklab-156-136  
gklab-156-044  
gklab-156-015  
gklab-156-015  
gklab-156-015  
gklab-156-132  
gklab-156-132  
gklab-156-135  
gklab-156-135  
gklab-156-134  
gklab-156-134  
gklab-156-202  
gklab-78-129  
gklab-78-129  
gklab-156-041  
gklab-156-043  
gklab-156-033  
gklab-156-035  
gklab-156-042  
gklab-156-137  
gklab-156-137  
gklab-156-138  
gklab-156-138  
gklab-156-031  
gklab-156-032  
gklab-156-046  
gklab-156-045  
gklab-156-133  
gklab-156-133  
gklab-156-047  
gklab-156-017  
gklab-156-017  
gklab-156-139  
gklab-156-037  
gklab-156-131  
gklab-156-131  
gklab-156-139  
gklab-156-036  

Microsoft Visual Studio 2015 
gklab-78-129  
gklab-78-129  
gklab-156-137  
gklab-156-137  

Microsoft Word 2013 
gklab-156-155  
gklab-156-155  

MoletteBend_FW_compilation
gklab-156-136  
gklab-156-132  
gklab-156-135  
gklab-156-134  
gklab-78-129  
gklab-156-137  
gklab-156-138  
gklab-156-133  
gklab-156-017  
gklab-156-017  
gklab-156-139 

MS SQL SERVER SQLCMD
gklab-156-136  
gklab-156-136  
gklab-156-135  
gklab-156-135  
gklab-156-011  
gklab-156-011  
gklab-156-137  
gklab-156-137  
gklab-156-139  
gklab-156-139  

MultiTester  
gklab-79-193  
gklab-79-190  
gklab-79-198  
gklab-156-168  
gklab-79-194  
gklab-79-191  
gklab-79-196  
gklab-79-197  
gklab-79-195  
gklab-79-199  
gklab-79-192  

MultiTester LNX
gklab-156-187  

Nagelfar
gklab-156-010  

NSGRC_Linux
gklab-156-216  
gklab-78-042  
gklab-156-215  
gklab-156-213  
gklab-156-212  
gklab-78-043 

NSIS
gklab-156-152  
gklab-156-152  

OpenBMC Ubuntu 14.04 
gklab-78-008  

OpenBMC_DEV 
ORLABBMCDEV01  

OpenBMC_KW
gklab-78-008  

OpenBMC_Release
ORLABBMCREL01  

OR Build Agents
orlab-156-222  
ORLAB-156-232  
ORLAB-156-233  
ORLAB-156-232
ORLAB-156-232

post_gklab156-019
gklab-156-019  
gklab-156-019  

Protex
GKSWWW004  
GKSWWW004  
GKSBLD001 
GKSBLD001  
GKSBLD001  
GKSBLD001
GKSBLD001 

PT Infrastructure
gklab-78-116  

PurleyBIOS 
GKSWWW004

QBPluginsResource 
gklab-156-038  

qcache
gklab-78-012  

RackScale Buildroot Fedora 23
gklab-78-040  

RackScale LUI Fedora 21
gklab-157-178  

RackScale PODM Ubuntu 14.04 LTS 
gklab-157-188  

RackScale PSME Debian 8.3
gklab-78-117  

RackScale PSME Fedora 21
gklab-157-184  
gklab-157-189  
gklab-157-164  
gklab-157-163  

RackScale PSME Fedora 23
gklab-79-172  
gklab-79-170  
gklab-79-171  
gklab-79-173  

RackScale PSME Ubuntu 14.04 LTS
gklab-157-125  
gklab-157-126  
gklab-157-128  
gklab-157-127  

RackScale RMM Ubuntu 14.04 LTS
gklab-156-208  

RackScale Ubuntu 16.04 LTS
gklab-78-039  

ReleaseRobot GK
gklab-156-050  

Rockhopper
gklab-157-149  
gklab-78-052  
gklab-157-201  
gklab-78-053  
gklab-78-053  
gklab-157-221  
gklab-157-221  
gklab-157-143  
gklab-157-143  

RSTe installer
gklab-156-015  
gklab-156-015  

RSTe_PreOS
gklab-156-249  
gklab-156-219  
gklab-156-246  
gklab-156-246  
gklab-156-246  

RSTe_PreOS_PoC
gklab-79-216  
gklab-79-207  
gklab-79-210  
gklab-79-206  
gklab-79-209  
gklab-79-219  
gklab-79-215  
gklab-79-211  
gklab-79-214  
gklab-79-218  
gklab-79-201  
gklab-79-203  
gklab-79-213  
gklab-79-217  
gklab-79-208  
gklab-79-204  
gklab-79-212  
gklab-79-205  
gklab-79-202  

RSTe_SDV
gklab-157-144  
gklab-157-144  

RSTe_WDK10
gklab-157-056  
gklab-157-053  
gklab-157-054  
gklab-157-058  
gklab-157-055  
gklab-157-057  
gklab-157-059  

saltstack
gklab-157-004  

SERVER_BIOS
gklab-156-143  
gklab-156-144  
gklab-156-140  

SPS Tools RHEL
gklab-157-119 

SPS_Tools_Compilation
gklab-156-010  
gklab-156-010  

SW_SIGNING
GKSBLD001  
GKSBLD001  
GKSBLD001  
GKSBLD001  
GKSBLD001 

TechtoolDeploy 
gklab-156-098  

TEST Master Step Servers
gklab-157-246  
gklab-157-245  

TOOLS
gklab-156-136  
gklab-156-136  
gklab-156-044  
gklab-156-132  
gklab-156-132  
gklab-156-135  
gklab-156-135  
gklab-156-134  
gklab-156-134  
gklab-78-129  
gklab-78-129  
gklab-156-041  
gklab-156-033  
gklab-156-035  
gklab-156-042  
gklab-156-138  
gklab-156-138  
gklab-156-031  
gklab-156-032  
gklab-156-046  
gklab-156-045  
gklab-156-133  
gklab-156-133  
gklab-156-047  
gklab-156-017  
gklab-156-017  
gklab-156-139  
gklab-156-037  
gklab-156-131  
gklab-156-131  
gklab-156-139  
gklab-156-036  

tools_sync
gklab-156-136  
gklab-156-044  
gklab-156-132  
gklab-156-135  
gklab-156-134  
gklab-78-129  
gklab-156-041  
gklab-156-043  
gklab-156-033  
gklab-156-035  
gklab-156-042  
gklab-156-137  
gklab-156-138  
gklab-156-031  
gklab-156-032  
gklab-156-046  
gklab-156-045  
gklab-156-133  
gklab-156-047  
gklab-156-017  
gklab-156-139  
gklab-156-037  
gklab-156-131  
gklab-156-036  

ValidationManager
gklab-156-231  

ValleyVista BIOS
gklab-156-034  

ValleyVista CentOS 6.5
gklab-156-201  

ValleyVista CentOS 7.0
gklab-156-199  

ValleyVista CentOS 7.2
gklab-79-031  
gklab-79-030  
gklab-79-032  

ValleyVista DISM
gklab-78-091  
gklab-78-092  

ValleyVista Windows Part
gklab-156-133  

VectorCast-Cover 
gklab-78-071  
gklab-78-073  
gklab-78-072  

VectorCast-UT 

WDK 8.0 
gklab-156-217  
gklab-156-217  
gklab-156-217  
gklab-156-218  

WDK 8.1_9600
gklab-156-136  
gklab-156-136  
gklab-156-015  
gklab-156-015  
gklab-156-135  
gklab-156-135  
gklab-156-134
gklab-156-134  
gklab-156-202  
gklab-156-137  
gklab-156-137  
gklab-156-138  
gklab-156-138  
gklab-156-133  
gklab-156-133  
gklab-156-139  
gklab-156-139  

WDK 8.1_prerelease
gklab-156-015  
gklab-156-015  

WDK 8.1_stable
gklab-156-136  
gklab-156-136  
gklab-156-015  
gklab-156-015  
gklab-156-015  
gklab-156-132  
gklab-156-132  
gklab-156-135  
gklab-156-135  
gklab-156-134  
gklab-156-134  
gklab-156-202  
gklab-78-129  
gklab-78-129  
gklab-156-137  
gklab-156-137  
gklab-156-138  
gklab-156-138  
gklab-156-133  
gklab-156-133  
gklab-156-139  
gklab-156-131  
gklab-156-131  
gklab-156-139  

WDK 8.2_Pre-Release
gklab-157-091  
gklab-157-092  
gklab-157-093  
gklab-157-094  
gklab-157-097  

WDK8.1U1
gklab-157-046  
gklab-157-047  
gklab-157-041  
gklab-157-043  
gklab-157-032  
gklab-157-042  
gklab-157-044  

WDK80
gklab-156-132  
gklab-156-132  
gklab-156-131  
gklab-156-131  

Westerlee Windows Sign 
gklab-156-033  
gklab-156-031  
gklab-156-032  
gklab-156-017  
gklab-156-017  

WFST_FW
gklab-156-228  

Windows Build Server
gklab-156-249  
gklab-156-188  
gklab-156-247  
gklab-156-219  
gklab-156-136  
gklab-156-136  
gklab-156-237  
gklab-156-044  
gklab-156-015  
gklab-156-015  
gklab-156-015  
gklab-156-132  
gklab-156-132  
gklab-156-135  
gklab-156-135  
gklab-156-134  
gklab-156-134  
gklab-156-217  
gklab-156-202  
gklab-156-217  
gklab-156-217  
gklab-78-129  
gklab-78-129  
gklab-156-041  
gklab-156-246  
gklab-156-246  
gklab-156-246  
gklab-156-043  
gklab-156-033  
gklab-156-035  
gklab-156-042  
gklab-156-137  
gklab-156-137  
gklab-156-138  
gklab-156-138  
gklab-156-031  
gklab-156-032  
gklab-156-046  
gklab-156-045  
gklab-156-133  
gklab-156-133  
gklab-156-047  
gklab-156-142  
gklab-156-017  
gklab-156-017  
gklab-156-139  
gklab-156-037  
gklab-156-131  
gklab-156-131  
gklab-156-236  
gklab-156-139  
gklab-156-036  

WIX TOOLSET
gklab-156-044  
gklab-156-041  
gklab-156-043  
gklab-156-042  
gklab-156-046  
gklab-156-045  
gklab-156-047  

WSE_Certified 
gklab-156-136  
gklab-156-136  
gklab-156-135  
gklab-156-135  
gklab-156-134  
gklab-156-134  
gklab-156-202  
gklab-156-202  
gklab-156-133  
gklab-156-133  

WWW
GKSWWW004  
GKSWWW004  
GKSWWW004  
GKSBLD001  
GKSBLD001  
GKSBLD001  
GKSBLD001  
GKSBLD001 

WWW2
GKSWWW004 
GKSWWW004
GKSWWW004 

WZUNZIP 
gklab-157-041  
gklab-156-017  
gklab-156-017  
gklab-157-143  
gklab-157-143  

Xeon+FPGA Ubuntu 14.04
gklab-156-172  

Xeon+FPGA Ubuntu 14.04 HW
gklab-156-172  

XTENSA 4.0.2 
GKSWWW004  
GKSWWW004  
GKSWWW004  

XTENSA GKSBLD001 
GKSBLD001  
GKSBLD001  
GKSBLD001  
GKSBLD001  
GKSBLD001 